{
  "architectures": ["amd64", "arm64"],
  "author": "DANBER",
  "languages": [
    "de",
    "en"
  ],
  "name": {
    "de": "Witze",
    "en": "Jokes"
  },
  "description_short": {
    "de": "Schwarzer Humor ist wie was zu Essen. Hat nicht jeder.",
    "en": "Black humor is like something to eat. Not everybody has it."
  },
  "description_long": {
    "de": "Böse Witze. Sie sind weder jugendfrei noch politisch korrekt.<br><br>\"Wie bekommt man 11 Millionen Follower? Man läuft mit einer Wasserflasche durch Afrika.\"<br>\"Was ist blau und orange und liegt auf dem Boden eines Pools? Ein Baby mit geplatzten Schwimmflügeln.\"<br>\"Schwarzer Humor ist wie was zu Essen. Hat nicht jeder.\"",
    "en": "Evil jokes. They're neither appropriate, nor politically correct.<br><br>\"How do you get 11 million followers? You walk around Africa with a bottle of water.\"<br>\"What is blue and orange and lies at the bottom of a pool? A baby with burst water wings.\"<br>\"Black humor is like something to eat. Not everybody has it.\""
  },
  "symbol": "theatre-16.png",
  "color": "#ff8200"
}